…
Note in particular the argument keep_minimal, which if set to TRUE, removes all extraneous HTML and logo images, retaining only the relevant enrichment results necessary for downstream analyses. If FALSE (the default), the output is exactly the same as if HOMER had been run from the command line with the given parameters.

Load Denovo and Known Motif Enrichment Results

HOMER produces two distinct files for de novo and known motif enrichments within the designated results directory, contained in homerMotifs.all.motif and knownResults.txt, respectively. These results can be read in using the respective read_*_results() functions, where * is either denovo or known.

known  <- read_known_results(path = results_dir, homer_dir = TRUE)
denovo <- read_denovo_results(path = results_dir, homer_dir = TRUE)

known
denovo

## # A tibble: 365 x 14
##    motif_name motif_family experiment accession database consensus
##    <chr>      <chr>        <chr>      <chr>     <chr>    <chr>    
##  1 Fosl2      bZIP         3T3L1-Fos… GSE56872  Homer    NATGASTC…
##  2 MafB       bZIP         BMM-Mafb-… GSE75722  Homer    WNTGCTGA…
##  3 Fra2       bZIP         Striatum-… GSE43429  Homer    GGATGACT…
##  4 Fra1       bZIP         BT549-Fra… GSE46166  Homer    NNATGAST…
##  5 JunB       bZIP         Dendritic… GSE36099  Homer    RATGASTC…
##  6 Atf3       bZIP         GBM-ATF3-… GSE33912  Homer    DATGASTC…
##  7 BATF       bZIP         Th17-BATF… GSE39756  Homer    DATGASTC…
##  8 AP-1       bZIP         ThioMac-P… GSE21512  Homer    VTGACTCA…
##  9 RUNX       Runt         HPC7-Runx… GSE22178  Homer    SAAACCAC…
## 10 NFY        CCAAT        Promoter   <NA>      Homer    RGCCAATS…
## # ... with 355 more rows, and 8 more variables: log_p_value <dbl>,
## #   fdr <dbl>, tgt_num <dbl>, tgt_pct <dbl>, bgd_num <dbl>, bgd_pct <dbl>,
## #   motif_pwm <list>, log_odds_detection <dbl>
…
## # A tibble: 5 x 2
##   id    regions          
##   <chr> <list>           
## 1 a     <tibble [50 × 3]>
## 2 b     <tibble [50 × 3]>
## 3 c     <tibble [50 × 3]>
## 4 d     <tibble [50 × 3]>
## 5 e     <tibble [50 × 3]>

## View regions sample
tbl_regions$regions[[1]] %>% print(n = 5)

## # A tibble: 50 x 3
##   chrom    start      end
##   <chr>    <int>    <int>
## 1 chr1   3322213  3322263
## 2 chr1  12952049 12952099
## 3 chr1  13419401 13419451
## 4 chr1  13496953 13497003
## 5 chr1  44639848 44639898
## # ... with 45 more rows
…
